<?xml version="1.0" encoding="utf-8"?>
<COLLADA xmlns="http://www.collada.org/2005/11/COLLADASchema" version="1.4.1" xmlns:xsi="http://www.w3.org/2001/XMLSchema-instance">
  <asset>
    <contributor>
      <author>Blender User</author>
      <authoring_tool>Blender 2.92.0 commit date:2021-02-24, commit time:16:25, hash:02948a2cab44</authoring_tool>
    </contributor>
    <created>2021-10-29T19:56:21</created>
    <modified>2021-10-29T19:56:21</modified>
    <unit name="meter" meter="1"/>
    <up_axis>Z_UP</up_axis>
  </asset>
  <library_effects>
    <effect id="Material_001-effect">
      <profile_COMMON>
        <technique sid="common">
          <lambert>
            <emission>
              <color sid="emission">0 0 0 1</color>
            </emission>
            <diffuse>
              <color sid="diffuse">0.8 0.8 0.8 1</color>
            </diffuse>
            <reflectivity>
              <float sid="specular">0.5</float>
            </reflectivity>
          </lambert>
        </technique>
      </profile_COMMON>
    </effect>
  </library_effects>
  <library_images/>
  <library_materials>
    <material id="Material_001-material" name="Material.001">
      <instance_effect url="#Material_001-effect"/>
    </material>
  </library_materials>
  <library_geometries>
    <geometry id="Cube-mesh" name="Cube">
      <mesh>
        <source id="Cube-mesh-positions">
          <float_array id="Cube-mesh-positions-array" count="111">-1 -1 -0.844199 -1 -1 0.844199 -1 1 -0.844199 -1 1 0.844199 1 -1 -0.844199 1 -1 0.844199 1 1 -0.844199 1 1 0.844199 -1 0 0.844199 0 1 0.844199 1 0 0.844199 0 -1 0.844199 0 0 0.844199 -1 -1 0 1 -1 0 -1 -0.8046319 -0.844199 -0.5 -1 0.844199 0.5 -1 0.844199 1 -0.8046319 -0.844199 1 0.8161124 -0.844199 -1 0.8161124 -0.844199 0.755186 1 -0.844199 0.755186 -1 -0.844199 -0.727229 1 -0.844199 -0.727229 -1 -0.844199 -0.9699634 -0.8476585 -1.090669 -0.9699634 -0.9784868 -1.090669 -0.8008651 0.9751794 -1.090669 -0.963182 0.9751794 -1.090669 0.9695129 0.8619121 -1.090669 0.9695129 0.9771003 -1.090669 0.8251652 -0.9720775 -1.090669 0.9650104 -0.9720775 -1.090669 0.9650104 -0.8604772 -1.090669 -0.963182 0.8657539 -1.090669 0.8161602 0.9771003 -1.090669 -0.7873021 -0.9784868 -1.090669</float_array>
          <technique_common>
            <accessor source="#Cube-mesh-positions-array" count="37" stride="3">
              <param name="X" type="float"/>
              <param name="Y" type="float"/>
              <param name="Z" type="float"/>
            </accessor>
          </technique_common>
        </source>
        <source id="Cube-mesh-normals">
          <float_array id="Cube-mesh-normals-array" count="114">-1 0 0 0 1 0 1 0 0 0 -1 0 0.5808267 0.8109439 -0.07078385 0 0 1 0 0 -1 -0.989026 0 -0.1477422 -0.6213232 0.7785741 -0.08820486 0.9924365 0 -0.1227595 0 -0.9936438 -0.1125703 -0.9926559 0 -0.1209724 0 0.9957115 -0.09251326 0.9900731 0 -0.140554 0 -0.9962123 -0.08695471 0.557048 -0.826301 -0.08321255 0 0.9949675 -0.1001983 -0.5989291 -0.7973679 -0.07408463 0 1 0 0 1 0 0 -1 0 0 -1 -2.38142e-7 0 -1 0 0.5808266 0.810944 -0.07078367 4.86938e-7 0 -1 -4.37031e-7 0 -1 1.34824e-7 0 -1 -0.989026 0 -0.1477421 -0.6213231 0.7785741 -0.08820563 0.9924364 0 -0.1227596 0 -0.9936438 -0.1125701 -0.9926559 0 -0.1209725 0 0.9957115 -0.09251302 0.990073 0 -0.140554 0 -0.9962123 -0.08695513 0.5570485 -0.8263006 -0.08321326 0 0.9949675 -0.1001985 -0.5989289 -0.797368 -0.0740844</float_array>
          <technique_common>
            <accessor source="#Cube-mesh-normals-array" count="38" stride="3">
              <param name="X" type="float"/>
              <param name="Y" type="float"/>
              <param name="Z" type="float"/>
            </accessor>
          </technique_common>
        </source>
        <source id="Cube-mesh-map-0">
          <float_array id="Cube-mesh-map-0-array" count="420">0.65625 0.8964286 0.53125 0.9928572 0.4292359 0.8 0.515625 0.9785714 0.4212267 0.7857143 0.6065286 0.7857143 0.9079845 8.78526e-5 0.5 0.7717913 8.78836e-5 0.3859396 0.5625 0.9642857 0.4375 0.8678572 0.4715964 0.7714286 0.6953125 0.8928571 0.484375 0.9642857 0.6953125 0.7928572 0.3515625 1 0.3515625 0.7714286 0.4921875 0.7714286 0.34375 0.9928572 0.34375 0.7928572 0.453125 0.7928572 0.609375 0.7714286 0.328125 1 0.328125 0.7714286 0.375 1 0.625 0.7857143 0.625 1 0.46875 0.9688262 0.46875 0.7994074 0.71875 0.9688262 0.375 0.7928572 0.5 0.8785715 0.375 0.8785715 0.6328125 0.8214286 0.546875 0.95 0.546875 0.8214286 0.694329 0.7714286 0.71875 0.7714286 0.71875 0.7994074 0.46875 0.7994074 0.46875 0.7714286 0.4917359 0.7714286 0.694329 1 0.71875 0.9688262 0.71875 1 0.46875 1 0.46875 0.9688262 0.491736 1 0.46875 0.9 0.59375 0.8142857 0.59375 0.9 0.40625 0.85 0.53125 0.9642857 0.40625 0.9642857 0.5703125 0.85 0.671875 0.9785714 0.5703125 0.9785714 0.5625 0.8142857 0.4375 0.9285714 0.4375 0.8142857 0.46875 0.8214286 0.3671875 0.9428572 0.3671875 0.8214286 0.671875 0.8071429 0.546875 0.9071429 0.546875 0.8071429 0.5078125 0.8357143 0.6171875 0.9928572 0.4921875 0.9928572 0.515625 0.9642857 0.390625 0.8642857 0.515625 0.8642857 0.5625 0.8357143 0.578125 0.8357143 0.4375 0.8357143 0.631829 0.8 0.65625 0.8 0.65625 0.8964286 0.65625 0.8964286 0.65625 0.9928572 0.53125 0.9928572 0.53125 0.9928572 0.40625 0.9928572 0.4292359 0.8 0.40625 0.9928572 0.40625 0.8 0.4292359 0.8 0.4292359 0.8 0.631829 0.8 0.65625 0.8964286 0.6065286 0.7857143 0.640625 0.7857143 0.640625 0.9785714 0.515625 0.9785714 0.390625 0.9785714 0.4212267 0.7857143 0.390625 0.9785714 0.390625 0.7857143 0.4212267 0.7857143 0.6065286 0.7857143 0.640625 0.9785714 0.515625 0.9785714 0.9079845 8.78526e-5 0.9999122 8.78389e-5 0.9999122 0.7717913 0.5 0.7717913 8.78389e-5 0.7717913 8.78836e-5 0.3859396 0.9079845 8.78526e-5 0.9999122 0.7717913 0.5 0.7717913 8.78836e-5 0.3859396 8.79283e-5 8.79879e-5 0.09775483 8.79734e-5 0.09775483 8.79734e-5 0.9079845 8.78526e-5 8.78836e-5 0.3859396 0.6568983 0.7714286 0.6875 0.7714286 0.6875 0.8678572 0.6875 0.8678572 0.6875 0.9642857 0.625 0.9642857 0.5625 0.9642857 0.5 0.9642857 0.4375 0.8678572 0.5 0.9642857 0.4375 0.9642857 0.4375 0.8678572 0.6875 0.8678572 0.625 0.9642857 0.5625 0.9642857 0.4715964 0.7714286 0.6568983 0.7714286 0.6875 0.8678572 0.4375 0.8678572 0.4375 0.7714286 0.4715964 0.7714286 0.4715964 0.7714286 0.6875 0.8678572 0.5625 0.9642857 0.6953125 0.8928571 0.484375 0.8357143 0.484375 0.9642857 0.6328125 0.7714286 0.6328125 1 0.4921875 0.7714286 0.6328125 1 0.3515625 1 0.4921875 0.7714286 0.5625 0.7928572 0.5625 0.9928572 0.453125 0.7928572 0.5625 0.9928572 0.34375 0.9928572 0.453125 0.7928572 0.609375 0.7714286 0.609375 1 0.328125 1 0.375 1 0.375 0.7857143 0.625 0.7857143 0.46875 0.7994074 0.4917359 0.7714286 0.694329 0.7714286 0.694329 0.7714286 0.71875 0.7994074 0.46875 0.7994074 0.71875 0.7994074 0.71875 0.9688262 0.46875 0.7994074 0.71875 0.9688262 0.694329 1 0.46875 0.9688262 0.694329 1 0.491736 1 0.46875 0.9688262 0.375 0.7928572 0.5 0.7928572 0.5 0.8785715 0.6328125 0.8214286 0.6328125 0.9428572 0.546875 0.95 0.46875 0.9 0.46875 0.8142857 0.59375 0.8142857 0.40625 0.85 0.53125 0.85 0.53125 0.9642857 0.5703125 0.85 0.671875 0.85 0.671875 0.9785714 0.5625 0.8142857 0.5625 0.9285714 0.4375 0.9285714 0.46875 0.8214286 0.46875 0.9428572 0.3671875 0.9428572 0.671875 0.8071429 0.671875 0.9071429 0.546875 0.9071429 0.5078125 0.8357143 0.5078125 0.9357143 0.6171875 0.9928572 0.515625 0.9642857 0.390625 0.9642857 0.390625 0.8642857 0.5625 0.8357143 0.453125 0.8357143 0.578125 0.8357143</float_array>
          <technique_common>
            <accessor source="#Cube-mesh-map-0-array" count="210" stride="2">
              <param name="S" type="float"/>
              <param name="T" type="float"/>
            </accessor>
          </technique_common>
        </source>
        <vertices id="Cube-mesh-vertices">
          <input semantic="POSITION" source="#Cube-mesh-positions"/>
        </vertices>
        <triangles material="Material_001-material" count="70">
          <input semantic="VERTEX" source="#Cube-mesh-vertices" offset="0"/>
          <input semantic="NORMAL" source="#Cube-mesh-normals" offset="1"/>
          <input semantic="TEXCOORD" source="#Cube-mesh-map-0" offset="2" set="0"/>
          <p>13 0 0 8 0 1 20 0 2 9 1 3 21 1 4 23 1 5 19 2 6 10 2 7 14 2 8 11 3 9 13 3 10 24 3 11 15 4 12 36 4 13 25 4 14 8 5 15 1 5 16 16 5 17 12 5 18 11 5 19 17 5 20 9 5 21 10 5 22 7 5 23 3 5 24 12 5 25 9 5 26 23 6 27 21 6 28 24 6 29 2 7 30 34 7 31 20 7 32 18 8 33 31 8 34 22 8 35 33 6 36 32 6 37 31 6 38 35 6 39 30 6 40 29 6 41 25 6 42 36 6 43 26 6 44 28 6 45 27 6 46 34 6 47 6 9 48 29 9 49 30 9 50 4 10 51 31 10 52 32 10 53 0 11 54 25 11 55 26 11 56 6 12 57 35 12 58 21 12 59 4 13 60 33 13 61 18 13 62 0 14 63 36 14 64 24 14 65 20 15 66 27 15 67 23 15 68 2 16 69 27 16 70 28 16 71 19 17 72 35 17 73 29 17 74 15 0 75 0 0 76 13 0 77 13 0 78 1 0 79 8 0 80 8 0 81 3 0 82 20 0 83 3 0 84 2 0 85 20 0 86 20 0 87 15 0 88 13 0 89 23 18 90 2 18 91 3 18 92 9 19 93 7 19 94 21 19 95 7 18 96 6 18 97 21 18 98 23 18 99 3 18 100 9 18 101 19 2 102 6 2 103 7 2 104 10 2 105 5 2 106 14 2 107 19 2 108 7 2 109 10 2 110 14 2 111 4 2 112 18 2 113 18 2 114 19 2 115 14 2 116 22 20 117 4 20 118 14 20 119 14 20 120 5 20 121 17 20 122 11 20 123 16 20 124 13 20 125 16 20 126 1 20 127 13 20 128 14 20 129 17 20 130 11 20 131 24 21 132 22 21 133 14 21 134 13 20 135 0 20 136 24 20 137 24 22 138 14 22 139 11 22 140 15 23 141 24 23 142 36 23 143 11 5 144 12 5 145 16 5 146 12 5 147 8 5 148 16 5 149 5 5 150 10 5 151 17 5 152 10 5 153 12 5 154 17 5 155 9 5 156 12 5 157 10 5 158 3 5 159 8 5 160 12 5 161 21 6 162 19 6 163 18 6 164 18 24 165 22 24 166 21 24 167 22 6 168 24 6 169 21 6 170 24 25 171 15 25 172 23 25 173 15 26 174 20 26 175 23 26 176 2 27 177 28 27 178 34 27 179 18 28 180 33 28 181 31 28 182 6 29 183 19 29 184 29 29 185 4 30 186 22 30 187 31 30 188 0 31 189 15 31 190 25 31 191 6 32 192 30 32 193 35 32 194 4 33 195 32 33 196 33 33 197 0 34 198 26 34 199 36 34 200 20 35 201 34 35 202 27 35 203 2 36 204 23 36 205 27 36 206 19 37 207 21 37 208 35 37 209</p>
        </triangles>
      </mesh>
    </geometry>
  </library_geometries>
  <library_visual_scenes>
    <visual_scene id="Scene" name="Scene">
      <node id="Cube" name="Cube" type="NODE">
        <matrix sid="transform">0.4678976 0 0 0 0 0.7018886 0 0 0 0 0.5547642 0.7517374 0 0 0 1</matrix>
        <instance_geometry url="#Cube-mesh" name="Cube">
          <bind_material>
            <technique_common>
              <instance_material symbol="Material_001-material" target="#Material_001-material">
                <bind_vertex_input semantic="UVMap" input_semantic="TEXCOORD" input_set="0"/>
              </instance_material>
            </technique_common>
          </bind_material>
        </instance_geometry>
      </node>
    </visual_scene>
  </library_visual_scenes>
  <scene>
    <instance_visual_scene url="#Scene"/>
  </scene>
</COLLADA>